\relax 
\providecommand\hyper@newdestlabel[2]{}
\providecommand\HyperFirstAtBeginDocument{\AtBeginDocument}
\HyperFirstAtBeginDocument{\ifx\hyper@anchor\@undefined
\global\let\oldcontentsline\contentsline
\gdef\contentsline#1#2#3#4{\oldcontentsline{#1}{#2}{#3}}
\global\let\oldnewlabel\newlabel
\gdef\newlabel#1#2{\newlabelxx{#1}#2}
\gdef\newlabelxx#1#2#3#4#5#6{\oldnewlabel{#1}{{#2}{#3}}}
\AtEndDocument{\ifx\hyper@anchor\@undefined
\let\contentsline\oldcontentsline
\let\newlabel\oldnewlabel
\fi}
\fi}
\global\let\hyper@last\relax 
\gdef\HyperFirstAtBeginDocument#1{#1}
\providecommand\HyField@AuxAddToFields[1]{}
\providecommand\HyField@AuxAddToCoFields[2]{}
\select@language{italian}
\@writefile{toc}{\select@language{italian}}
\@writefile{lof}{\select@language{italian}}
\@writefile{lot}{\select@language{italian}}
\select@language{italian}
\@writefile{toc}{\select@language{italian}}
\@writefile{lof}{\select@language{italian}}
\@writefile{lot}{\select@language{italian}}
\newlabel{index::doc}{{}{1}{}{section*.2}{}}
\@writefile{toc}{\contentsline {chapter}{\numberline {1}Django Framework}{1}{chapter.1}}
\@writefile{lof}{\addvspace {10\p@ }}
\@writefile{lot}{\addvspace {10\p@ }}
\newlabel{02_django/00_django_index::doc}{{1}{1}{Django Framework}{chapter.1}{}}
\newlabel{02_django/00_django_index:sviluppo-di-una-applicazione-web-moderna-dallidea-al-deploy-con-il-framework-django}{{1}{1}{Django Framework}{chapter.1}{}}
\newlabel{02_django/00_django_index:django-framework}{{1}{1}{Django Framework}{chapter.1}{}}
\@writefile{toc}{\contentsline {section}{\numberline {1.1}Cos\IeC {\textquoteright }\IeC {\`e} Django?}{1}{section.1.1}}
\newlabel{02_django/02_cose_django::doc}{{1.1}{1}{Cos’è Django?}{section.1.1}{}}
\newlabel{02_django/02_cose_django:cos-e-django}{{1.1}{1}{Cos’è Django?}{section.1.1}{}}
\@writefile{toc}{\contentsline {section}{\numberline {1.2}Come funziona Django?}{1}{section.1.2}}
\newlabel{02_django/02_cose_django:come-funziona-django}{{1.2}{1}{Come funziona Django?}{section.1.2}{}}
\@writefile{toc}{\contentsline {section}{\numberline {1.3}Creazione dell\IeC {\textquoteright }ambiente di sviluppo}{4}{section.1.3}}
\newlabel{02_django/03_creazione_dell_ambiente_di_sviluppo::doc}{{1.3}{4}{Creazione dell’ambiente di sviluppo}{section.1.3}{}}
\newlabel{02_django/03_creazione_dell_ambiente_di_sviluppo:creazione-dell-ambiente-di-sviluppo}{{1.3}{4}{Creazione dell’ambiente di sviluppo}{section.1.3}{}}
\@writefile{toc}{\contentsline {section}{\numberline {1.4}Definire e gestire i requisiti}{4}{section.1.4}}
\newlabel{02_django/04_definire_e_gestire_i_requisiti::doc}{{1.4}{4}{Definire e gestire i requisiti}{section.1.4}{}}
\newlabel{02_django/04_definire_e_gestire_i_requisiti:definire-e-gestire-i-requisiti}{{1.4}{4}{Definire e gestire i requisiti}{section.1.4}{}}
\@writefile{toc}{\contentsline {section}{\numberline {1.5}Creare un progetto}{5}{section.1.5}}
\newlabel{02_django/05_creare_un_progetto::doc}{{1.5}{5}{Creare un progetto}{section.1.5}{}}
\newlabel{02_django/05_creare_un_progetto:creare-un-progetto}{{1.5}{5}{Creare un progetto}{section.1.5}{}}
\@writefile{toc}{\contentsline {section}{\numberline {1.6}Specificare il database di backend}{6}{section.1.6}}
\newlabel{02_django/06_specificare_il_database_di_backend::doc}{{1.6}{6}{Specificare il database di backend}{section.1.6}{}}
\newlabel{02_django/06_specificare_il_database_di_backend:specificare-il-database-di-backend}{{1.6}{6}{Specificare il database di backend}{section.1.6}{}}
\@writefile{toc}{\contentsline {section}{\numberline {1.7}Object Relational Mapping (ORM)}{7}{section.1.7}}
\newlabel{02_django/07_object_relational_mapping::doc}{{1.7}{7}{Object Relational Mapping (ORM)}{section.1.7}{}}
\newlabel{02_django/07_object_relational_mapping:object-relational-mapping-orm}{{1.7}{7}{Object Relational Mapping (ORM)}{section.1.7}{}}
\newlabel{02_django/07_object_relational_mapping:index-0}{{1.7}{7}{Object Relational Mapping (ORM)}{section.1.7}{}}
\newlabel{02_django/07_object_relational_mapping:index-1}{{1.7}{7}{Object Relational Mapping (ORM)}{section.1.7}{}}
\@writefile{toc}{\contentsline {section}{\numberline {1.8}Server di sviluppo}{7}{section.1.8}}
\newlabel{02_django/08_server_di_sviluppo::doc}{{1.8}{7}{Server di sviluppo}{section.1.8}{}}
\newlabel{02_django/08_server_di_sviluppo:server-di-sviluppo}{{1.8}{7}{Server di sviluppo}{section.1.8}{}}
\@writefile{toc}{\contentsline {section}{\numberline {1.9}Creazione di un\IeC {\textquoteright }applicazione}{8}{section.1.9}}
\newlabel{02_django/09_creazione_di_una_applicazione::doc}{{1.9}{8}{Creazione di un’applicazione}{section.1.9}{}}
\newlabel{02_django/09_creazione_di_una_applicazione:creazione-di-un-applicazione}{{1.9}{8}{Creazione di un’applicazione}{section.1.9}{}}
\@writefile{toc}{\contentsline {section}{\numberline {1.10}MVT (Model View Template) pattern}{9}{section.1.10}}
\newlabel{02_django/10_mvt_pattern::doc}{{1.10}{9}{MVT (Model View Template) pattern}{section.1.10}{}}
\newlabel{02_django/10_mvt_pattern:mvt-model-view-template-pattern}{{1.10}{9}{MVT (Model View Template) pattern}{section.1.10}{}}
\@writefile{toc}{\contentsline {section}{\numberline {1.11}Django: Model}{9}{section.1.11}}
\newlabel{02_django/11_django_model::doc}{{1.11}{9}{Django: Model}{section.1.11}{}}
\newlabel{02_django/11_django_model:django-model}{{1.11}{9}{Django: Model}{section.1.11}{}}
\newlabel{02_django/11_django_model:index-0}{{1.11}{10}{Django: Model}{Item.4}{}}
\@writefile{toc}{\contentsline {section}{\numberline {1.12}Django: Views}{12}{section.1.12}}
\newlabel{02_django/12_django_view::doc}{{1.12}{12}{Django: Views}{section.1.12}{}}
\newlabel{02_django/12_django_view:django-views}{{1.12}{12}{Django: Views}{section.1.12}{}}
\newlabel{02_django/12_django_view:index-0}{{1.12}{12}{Django: Views}{section.1.12}{}}
\@writefile{toc}{\contentsline {section}{\numberline {1.13}Django: Template}{15}{section.1.13}}
\newlabel{02_django/13_django_template::doc}{{1.13}{15}{Django: Template}{section.1.13}{}}
\newlabel{02_django/13_django_template:django-template}{{1.13}{15}{Django: Template}{section.1.13}{}}
\newlabel{02_django/13_django_template:index-0}{{1.13}{15}{Django: Template}{Item.12}{}}
\@writefile{toc}{\contentsline {section}{\numberline {1.14}DTL (Django Template Language)}{16}{section.1.14}}
\newlabel{02_django/13_django_template:dtl-django-template-language}{{1.14}{16}{DTL (Django Template Language)}{section.1.14}{}}
\@writefile{toc}{\contentsline {subsection}{\numberline {1.14.1}Le variabili}{16}{subsection.1.14.1}}
\newlabel{02_django/13_django_template:le-variabili}{{1.14.1}{16}{Le variabili}{subsection.1.14.1}{}}
\@writefile{toc}{\contentsline {subsection}{\numberline {1.14.2}I filtri}{16}{subsection.1.14.2}}
\newlabel{02_django/13_django_template:i-filtri}{{1.14.2}{16}{I filtri}{subsection.1.14.2}{}}
\@writefile{toc}{\contentsline {subsection}{\numberline {1.14.3}I Tag}{16}{subsection.1.14.3}}
\newlabel{02_django/13_django_template:i-tag}{{1.14.3}{16}{I Tag}{subsection.1.14.3}{}}
\@writefile{toc}{\contentsline {subsection}{\numberline {1.14.4}L\IeC {\textquoteright }ereditariet\IeC {\`a}}{17}{subsection.1.14.4}}
\newlabel{02_django/13_django_template:l-ereditarieta}{{1.14.4}{17}{L’ereditarietà}{subsection.1.14.4}{}}
\@writefile{toc}{\contentsline {chapter}{\numberline {2}TDD (Test-Driven Development)}{19}{chapter.2}}
\@writefile{lof}{\addvspace {10\p@ }}
\@writefile{lot}{\addvspace {10\p@ }}
\newlabel{03_testing/00_testing_index::doc}{{2}{19}{TDD (Test-Driven Development)}{chapter.2}{}}
\newlabel{03_testing/00_testing_index:tdd-test-driven-development}{{2}{19}{TDD (Test-Driven Development)}{chapter.2}{}}
\@writefile{toc}{\contentsline {section}{\numberline {2.1}Cos\IeC {\textquoteright }e il Test-Driven Development}{19}{section.2.1}}
\newlabel{03_testing/02_tdd::doc}{{2.1}{19}{Cos’e il Test-Driven Development}{section.2.1}{}}
\newlabel{03_testing/02_tdd:cos-e-il-test-driven-development}{{2.1}{19}{Cos’e il Test-Driven Development}{section.2.1}{}}
\@writefile{toc}{\contentsline {section}{\numberline {2.2}TDD - Un caso d\IeC {\textquoteright }uso sulle API REST}{20}{section.2.2}}
\newlabel{03_testing/03_un_caso_duso_sulle_api::doc}{{2.2}{20}{TDD - Un caso d’uso sulle API REST}{section.2.2}{}}
\newlabel{03_testing/03_un_caso_duso_sulle_api:tdd-un-caso-d-uso-sulle-api-rest}{{2.2}{20}{TDD - Un caso d’uso sulle API REST}{section.2.2}{}}
\@writefile{toc}{\contentsline {subsection}{\numberline {2.2.1}REST mediante Django Rest Framework}{21}{subsection.2.2.1}}
\newlabel{03_testing/03_un_caso_duso_sulle_api:rest-mediante-django-rest-framework}{{2.2.1}{21}{REST mediante Django Rest Framework}{subsection.2.2.1}{}}
\@writefile{toc}{\contentsline {subsection}{\numberline {2.2.2}Testare le API mediante Django Testing Framework}{23}{subsection.2.2.2}}
\newlabel{03_testing/03_un_caso_duso_sulle_api:testare-le-api-mediante-django-testing-framework}{{2.2.2}{23}{Testare le API mediante Django Testing Framework}{subsection.2.2.2}{}}
\@writefile{toc}{\contentsline {chapter}{\numberline {3}Deploy}{31}{chapter.3}}
\@writefile{lof}{\addvspace {10\p@ }}
\@writefile{lot}{\addvspace {10\p@ }}
\newlabel{04_deploy/00_deploy_index::doc}{{3}{31}{Deploy}{chapter.3}{}}
\newlabel{04_deploy/00_deploy_index:deploy}{{3}{31}{Deploy}{chapter.3}{}}
\@writefile{toc}{\contentsline {section}{\numberline {3.1}Introduzione}{31}{section.3.1}}
\newlabel{04_deploy/01_introduzione::doc}{{3.1}{31}{Introduzione}{section.3.1}{}}
\newlabel{04_deploy/01_introduzione:introduzione}{{3.1}{31}{Introduzione}{section.3.1}{}}
\newlabel{04_deploy/01_introduzione:index-0}{{3.1}{31}{Introduzione}{section.3.1}{}}
\@writefile{toc}{\contentsline {section}{\numberline {3.2}VCS (Version Control System)}{31}{section.3.2}}
\newlabel{04_deploy/02_vcs::doc}{{3.2}{31}{VCS (Version Control System)}{section.3.2}{}}
\newlabel{04_deploy/02_vcs:vcs-version-control-system}{{3.2}{31}{VCS (Version Control System)}{section.3.2}{}}
\@writefile{toc}{\contentsline {subsection}{\numberline {3.2.1}Introduzione}{31}{subsection.3.2.1}}
\newlabel{04_deploy/02_vcs:introduzione}{{3.2.1}{31}{Introduzione}{subsection.3.2.1}{}}
\@writefile{toc}{\contentsline {subsection}{\numberline {3.2.2}Sistema di controllo di versione distribuito: Bitbucket}{32}{subsection.3.2.2}}
\newlabel{04_deploy/02_vcs:sistema-di-controllo-di-versione-distribuito-bitbucket}{{3.2.2}{32}{Sistema di controllo di versione distribuito: Bitbucket}{subsection.3.2.2}{}}
\@writefile{toc}{\contentsline {section}{\numberline {3.3}Deploy}{34}{section.3.3}}
\newlabel{04_deploy/03_deploy_heroku::doc}{{3.3}{34}{Deploy}{section.3.3}{}}
\newlabel{04_deploy/03_deploy_heroku:deploy}{{3.3}{34}{Deploy}{section.3.3}{}}
\@writefile{toc}{\contentsline {subsection}{\numberline {3.3.1}VPS hosting vs Cloud Hosting}{34}{subsection.3.3.1}}
\newlabel{04_deploy/03_deploy_heroku:vps-hosting-vs-cloud-hosting}{{3.3.1}{34}{VPS hosting vs Cloud Hosting}{subsection.3.3.1}{}}
\@writefile{toc}{\contentsline {subsection}{\numberline {3.3.2}Deploy: Heroku}{35}{subsection.3.3.2}}
\newlabel{04_deploy/03_deploy_heroku:deploy-heroku}{{3.3.2}{35}{Deploy: Heroku}{subsection.3.3.2}{}}
\@writefile{toc}{\contentsline {chapter}{\numberline {4}Conclusioni e sviluppi futuri}{37}{chapter.4}}
\@writefile{lof}{\addvspace {10\p@ }}
\@writefile{lot}{\addvspace {10\p@ }}
\newlabel{index:conclusioni-e-sviluppi-futuri}{{4}{37}{Conclusioni e sviluppi futuri}{chapter.4}{}}
\@writefile{toc}{\contentsline {chapter}{\numberline {5}Riferimenti}{39}{chapter.5}}
\@writefile{lof}{\addvspace {10\p@ }}
\@writefile{lot}{\addvspace {10\p@ }}
\newlabel{index:riferimenti}{{5}{39}{Riferimenti}{chapter.5}{}}
